Data Wrangling
…
C. 5

# your code goes here
v<-bike$bemp
ccc<-v[{q<-rank(v)/length(v);q>=0.95}]

bike_bemp<-bike[bike$bemp %in% ccc,]
 
 bike_bemp %>%
   select(sna,bemp) %>%
   arrange(desc(bemp))

## # A tibble: 21 x 2
##                      sna  bemp
##                    <chr> <int>
##  1          76
##  2                  65
##  3                56
##  4                    55
##  5     (101)    54
##  6              54
##  7                  51
##  8              48
##  9   (2)    46
## 10 (2)    46
## # ... with 11 more rows
…
